%YAML 1.1
%TAG !u! tag:unity3d.com,2011:
--- !u!1001 &2184273536607144502
PrefabInstance:
  m_ObjectHideFlags: 0
  serializedVersion: 2
  m_Modification:
    serializedVersion: 3
    m_TransformParent: {fileID: 0}
    m_Modifications:
    - target: {fileID: -8679921383154817045, guid: eb01a3986b6304247a62eba0032f619d, type: 3}
      propertyPath: m_RootOrder
      value: 4
      objectReference: {fileID: 0}
    - target: {fileID: -8679921383154817045, guid: eb01a3986b6304247a62eba0032f619d, type: 3}
      propertyPath: m_LocalScale.x
      value: 0.3
      objectReference: {fileID: 0}
    - target: {fileID: -8679921383154817045, guid: eb01a3986b6304247a62eba0032f619d, type: 3}
      propertyPath: m_LocalScale.y
      value: 0.3
      objectReference: {fileID: 0}
    - target: {fileID: -8679921383154817045, guid: eb01a3986b6304247a62eba0032f619d, type: 3}
      propertyPath: m_LocalScale.z
      value: 0.3
      objectReference: {fileID: 0}
    - target: {fileID: -8679921383154817045, guid: eb01a3986b6304247a62eba0032f619d, type: 3}
      propertyPath: m_LocalPosition.x
      value: 0
      objectReference: {fileID: 0}
    - target: {fileID: -8679921383154817045, guid: eb01a3986b6304247a62eba0032f619d, type: 3}
      propertyPath: m_LocalPosition.y
      value: -0.04699999
      objectReference: {fileID: 0}
    - target: {fileID: -8679921383154817045, guid: eb01a3986b6304247a62eba0032f619d, type: 3}
      propertyPath: m_LocalPosition.z
      value: 0
      objectReference: {fileID: 0}
    - target: {fileID: -8679921383154817045, guid: eb01a3986b6304247a62eba0032f619d, type: 3}
      propertyPath: m_LocalRotation.w
      value: 1
      objectReference: {fileID: 0}
    - target: {fileID: -8679921383154817045, guid: eb01a3986b6304247a62eba0032f619d, type: 3}
      propertyPath: m_LocalRotation.x
      value: 0
      objectReference: {fileID: 0}
    - target: {fileID: -8679921383154817045, guid: eb01a3986b6304247a62eba0032f619d, type: 3}
      propertyPath: m_LocalRotation.y
      value: 0
      objectReference: {fileID: 0}
    - target: {fileID: -8679921383154817045, guid: eb01a3986b6304247a62eba0032f619d, type: 3}
      propertyPath: m_LocalRotation.z
      value: 0
      objectReference: {fileID: 0}
    - target: {fileID: -8679921383154817045, guid: eb01a3986b6304247a62eba0032f619d, type: 3}
      propertyPath: m_LocalEulerAnglesHint.x
      value: 0
      objectReference: {fileID: 0}
    - target: {fileID: -8679921383154817045, guid: eb01a3986b6304247a62eba0032f619d, type: 3}
      propertyPath: m_LocalEulerAnglesHint.y
      value: 0
      objectReference: {fileID: 0}
    - target: {fileID: -8679921383154817045, guid: eb01a3986b6304247a62eba0032f619d, type: 3}
      propertyPath: m_LocalEulerAnglesHint.z
      value: 0
      objectReference: {fileID: 0}
    - target: {fileID: 919132149155446097, guid: eb01a3986b6304247a62eba0032f619d, type: 3}
      propertyPath: m_Name
      value: Marimonda_Final_Low Variant
      objectReference: {fileID: 0}
    m_RemovedComponents:
    - {fileID: 5866666021909216657, guid: eb01a3986b6304247a62eba0032f619d, type: 3}
    m_RemovedGameObjects: []
    m_AddedGameObjects: []
    m_AddedComponents:
    - targetCorrespondingSourceObject: {fileID: 919132149155446097, guid: eb01a3986b6304247a62eba0032f619d, type: 3}
      insertIndex: -1
      addedObject: {fileID: 9075513044177663471}
    - targetCorrespondingSourceObject: {fileID: 919132149155446097, guid: eb01a3986b6304247a62eba0032f619d, type: 3}
      insertIndex: -1
      addedObject: {fileID: 4209030831146111332}
    - targetCorrespondingSourceObject: {fileID: 919132149155446097, guid: eb01a3986b6304247a62eba0032f619d, type: 3}
      insertIndex: -1
      addedObject: {fileID: 8873044046343257418}
  m_SourcePrefab: {fileID: 100100000, guid: eb01a3986b6304247a62eba0032f619d, type: 3}
--- !u!1 &1337974691373807463 stripped
GameObject:
  m_CorrespondingSourceObject: {fileID: 919132149155446097, guid: eb01a3986b6304247a62eba0032f619d, type: 3}
  m_PrefabInstance: {fileID: 2184273536607144502}
  m_PrefabAsset: {fileID: 0}
--- !u!95 &9075513044177663471
Animator:
  serializedVersion: 5
  m_ObjectHideFlags: 0
  m_CorrespondingSourceObject: {fileID: 0}
  m_PrefabInstance: {fileID: 0}
  m_PrefabAsset: {fileID: 0}
  m_GameObject: {fileID: 1337974691373807463}
  m_Enabled: 1
  m_Avatar: {fileID: 9000000, guid: eb01a3986b6304247a62eba0032f619d, type: 3}
  m_Controller: {fileID: 9100000, guid: dcb450ed0c49c914398a3a6e601d37f0, type: 2}
  m_CullingMode: 0
  m_UpdateMode: 1
  m_ApplyRootMotion: 0
  m_LinearVelocityBlending: 0
  m_StabilizeFeet: 0
  m_WarningMessage: 
  m_HasTransformHierarchy: 1
  m_AllowConstantClipSamplingOptimization: 1
  m_KeepAnimatorStateOnDisable: 0
  m_WriteDefaultValuesOnDisable: 0
--- !u!54 &4209030831146111332
Rigidbody:
  m_ObjectHideFlags: 0
  m_CorrespondingSourceObject: {fileID: 0}
  m_PrefabInstance: {fileID: 0}
  m_PrefabAsset: {fileID: 0}
  m_GameObject: {fileID: 1337974691373807463}
  serializedVersion: 4
  m_Mass: 1
  m_Drag: 0
  m_AngularDrag: 0.05
  m_CenterOfMass: {x: 0, y: 0, z: 0}
  m_InertiaTensor: {x: 1, y: 1, z: 1}
  m_InertiaRotation: {x: 0, y: 0, z: 0, w: 1}
  m_IncludeLayers:
    serializedVersion: 2
    m_Bits: 0
  m_ExcludeLayers:
    serializedVersion: 2
    m_Bits: 0
  m_ImplicitCom: 1
  m_ImplicitTensor: 1
  m_UseGravity: 1
  m_IsKinematic: 0
  m_Interpolate: 0
  m_Constraints: 84
  m_CollisionDetection: 0
--- !u!136 &8873044046343257418
CapsuleCollider:
  m_ObjectHideFlags: 0
  m_CorrespondingSourceObject: {fileID: 0}
  m_PrefabInstance: {fileID: 0}
  m_PrefabAsset: {fileID: 0}
  m_GameObject: {fileID: 1337974691373807463}
  m_Material: {fileID: 0}
  m_IncludeLayers:
    serializedVersion: 2
    m_Bits: 0
  m_ExcludeLayers:
    serializedVersion: 2
    m_Bits: 0
  m_LayerOverridePriority: 0
  m_IsTrigger: 0
  m_ProvidesContacts: 0
  m_Enabled: 1
  serializedVersion: 2
  m_Radius: 0.8
  m_Height: 5.0412064
  m_Direction: 1
  m_Center: {x: 0.012358824, y: 2.0206022, z: 0}
